------------------------------------------------------------------------
r945288 | scripty | 2009-03-27 08:21:57 +0000 (Fri, 27 Mar 2009) | 1 line

SVN_SILENT made messages (.desktop file)
------------------------------------------------------------------------
r946321 | scripty | 2009-03-29 08:01:15 +0000 (Sun, 29 Mar 2009) | 1 line

SVN_SILENT made messages (.desktop file)
------------------------------------------------------------------------
r953526 | sune | 2009-04-14 08:54:04 +0000 (Tue, 14 Apr 2009) | 1 line

make it build on arm where qreal is not double, backport of r953525.
------------------------------------------------------------------------
r960899 | scripty | 2009-04-29 08:19:15 +0000 (Wed, 29 Apr 2009) | 1 line

SVN_SILENT made messages (.desktop file)
------------------------------------------------------------------------
